"DSVoice Alarm Severities List File:  Version = 1.2"
"ID","Dest Type","Continuous Annunciation","Ack InAlarm Only","Delay0","Dest0","Delay1","Dest1","Delay2","Dest2","Delay3","Dest3"
1,1,0,0,300,"",0,"Sound card speakers",0,"",0,""
2,1,0,0,300,"",0,"Sound card speakers",0,"",0,""
3,1,0,0,300,"",0,"Sound card speakers",0,"",0,""
4,1,0,0,300,"",0,"Sound card speakers",0,"",0,""
5,1,0,0,300,"",0,"Sound card speakers",0,"",0,""
6,1,0,0,300,"",0,"Sound card speakers",0,"",0,""
7,1,0,0,300,"",0,"Sound card speakers",0,"",0,""
8,1,0,0,300,"",0,"Sound card speakers",0,"",0,""
9,1,0,0,300,"",0,"Sound card speakers",0,"",0,""
10,1,0,0,300,"",0,"Sound card speakers",0,"",0,""
11,2,0,0,300,"",0,"Sound card speakers",0,"",0,""
12,2,0,0,300,"",0,"Sound card speakers",0,"",0,""
